<?xml version="1.0" encoding="UTF-8"?>
<glyph name="k.ss01" format="2">
	<advance width="457"/>
	<outline>
		<contour>
			<point x="113" y="0" type="line"/>
			<point x="70" y="0" type="line"/>
			<point x="70" y="700" type="line"/>
			<point x="113" y="700" type="line"/>
		</contour>
		<contour>
			<point x="404" y="0" type="line"/>
			<point x="115" y="250" type="line"/>
			<point x="143" y="283" type="line"/>
			<point x="432" y="32" type="line"/>
		</contour>
		<contour>
			<point x="230" y="220" type="line"/>
			<point x="201" y="251" type="line"/>
			<point x="390" y="422" type="line"/>
			<point x="420" y="391" type="line"/>
		</contour>
	</outline>
</glyph>
